<?xml version="1.0" encoding="UTF-8" standalone="no"?>
<!-- Created with Inkscape (http://www.inkscape.org/) -->

<svg
   xmlns:dc="http://purl.org/dc/elements/1.1/"
   xmlns:cc="http://creativecommons.org/ns#"
   xmlns:rdf="http://www.w3.org/1999/02/22-rdf-syntax-ns#"
   xmlns:svg="http://www.w3.org/2000/svg"
   xmlns="http://www.w3.org/2000/svg"
   xmlns:sodipodi="http://sodipodi.sourceforge.net/DTD/sodipodi-0.dtd"
   xmlns:inkscape="http://www.inkscape.org/namespaces/inkscape"
   width="1350"
   height="1900"
   viewBox="0 0 357.18749 502.70833"
   version="1.1"
   id="svg8"
   inkscape:version="0.92.3 (2405546, 2018-03-11)"
   sodipodi:docname="highlight-marker.svg"
   inkscape:export-filename="/home/rp3e11/codes/angular/flat-test-day/src/assets/marker-images/marker-highlight.png"
   inkscape:export-xdpi="96"
   inkscape:export-ydpi="96">
  <defs
     id="defs2" />
  <sodipodi:namedview
     id="base"
     pagecolor="#ffffff"
     bordercolor="#666666"
     borderopacity="1.0"
     inkscape:pageopacity="0.0"
     inkscape:pageshadow="2"
     inkscape:zoom="0.24748737"
     inkscape:cx="-47.087358"
     inkscape:cy="476.34554"
     inkscape:document-units="mm"
     inkscape:current-layer="svg8"
     showgrid="false"
     inkscape:window-width="1920"
     inkscape:window-height="1016"
     inkscape:window-x="1280"
     inkscape:window-y="27"
     inkscape:window-maximized="1"
     units="px"
     inkscape:pagecheckerboard="true" />
  <metadata
     id="metadata5">
    <rdf:RDF>
      <cc:Work
         rdf:about="">
        <dc:format>image/svg+xml</dc:format>
        <dc:type
           rdf:resource="http://purl.org/dc/dcmitype/StillImage" />
        <dc:title></dc:title>
      </cc:Work>
    </rdf:RDF>
  </metadata>
  <g
     inkscape:label="Layer 1"
     inkscape:groupmode="layer"
     id="layer1"
     transform="translate(0,205.70831)" />
  <path
     id="path815"
     d="m 179.11366,3.2042813 c -95.925627,0 -173.5088983,77.5832737 -173.5088983,173.5090387 0,130.13169 173.5088983,322.23084 173.5088983,322.23084 0,0 173.50891,-192.09915 173.50891,-322.23084 0,-95.925765 -77.58327,-173.5090387 -173.50891,-173.5090387 z m 0,235.4765087 c -34.20604,0 -61.96747,-27.76143 -61.96747,-61.96747 0,-34.20605 27.76143,-61.96747 61.96747,-61.96747 34.20604,0 61.96747,27.76142 61.96747,61.96747 0,34.20604 -27.76143,61.96747 -61.96747,61.96747 z"
     inkscape:connector-curvature="0"
     style="color:#ff0000;fill:#0000ff;stroke-width:24.7869873"
     inkscape:export-xdpi="96"
     inkscape:export-ydpi="96" />
</svg>
